solid OpenSCAD_Model
  facet normal -0.866025 0.5 1.44222e-016
    outer loop
      vertex -15.4999 3.1534 28.1094
      vertex -10.4809 11.8466 28.1094
      vertex -17.3205 -1.43367e-015 24.1094
    endloop
  endfacet
  facet normal -0.866025 0.5 1.44222e-016
    outer loop
      vertex -17.3205 -1.43367e-015 24.1094
      vertex -10.4809 11.8466 28.1094
      vertex -8.66025 15 24.1094
    endloop
  endfacet
  facet normal -0.866025 0.5 1.44222e-016
    outer loop
      vertex -17.3205 -1.43367e-015 24.1094
      vertex -8.66025 15 24.1094
      vertex -8.66025 15 -24.1094
    endloop
  endfacet
  facet normal -0.866025 0.5 1.44222e-016
    outer loop
      vertex -17.3205 -1.43367e-015 24.1094
      vertex -8.66025 15 -24.1094
      vertex -17.3205 8.84397e-016 -24.1094
    endloop
  endfacet
  facet normal -0.866025 -0.5 9.61481e-017
    outer loop
      vertex -10.4809 -11.8466 -28.1094
      vertex -8.66025 -15 -24.1094
      vertex -15.4999 -3.1534 -28.1094
    endloop
  endfacet
  facet normal -0.866025 -0.5 9.61481e-017
    outer loop
      vertex -15.4999 -3.1534 -28.1094
      vertex -8.66025 -15 -24.1094
      vertex -8.66025 -15 24.1094
    endloop
  endfacet
  facet normal -0.866025 -0.5 9.61481e-017
    outer loop
      vertex -15.4999 -3.1534 -28.1094
      vertex -8.66025 -15 24.1094
      vertex -17.3205 -1.43367e-015 24.1094
    endloop
  endfacet
  facet normal -0.866025 -0.5 9.61481e-017
    outer loop
      vertex -15.4999 -3.1534 -28.1094
      vertex -17.3205 -1.43367e-015 24.1094
      vertex -17.3205 8.84397e-016 -24.1094
    endloop
  endfacet
  facet normal -0.6801 0.392656 -0.619101
    outer loop
      vertex -5.01902 15 -28.1094
      vertex 0 6.3068 -39.1364
      vertex -8.66025 15 -24.1094
    endloop
  endfacet
  facet normal -0.6801 0.392656 -0.619101
    outer loop
      vertex -8.66025 15 -24.1094
      vertex 0 6.3068 -39.1364
      vertex 0 -5.43918e-015 -43.1364
    endloop
  endfacet
  facet normal -0.6801 0.392656 -0.619101
    outer loop
      vertex -8.66025 15 -24.1094
      vertex 0 -5.43918e-015 -43.1364
      vertex -5.46185 -3.1534 -39.1364
    endloop
  endfacet
  facet normal -0.6801 0.392656 -0.619101
    outer loop
      vertex -8.66025 15 -24.1094
      vertex -5.46185 -3.1534 -39.1364
      vertex -15.4999 -3.1534 -28.1094
    endloop
  endfacet
  facet normal -0.6801 0.392656 -0.619101
    outer loop
      vertex -8.66025 15 -24.1094
      vertex -15.4999 -3.1534 -28.1094
      vertex -17.3205 8.84397e-016 -24.1094
    endloop
  endfacet
  facet normal -0.6801 -0.392656 0.619101
    outer loop
      vertex -5.01902 -15 28.1094
      vertex 0 -6.3068 39.1364
      vertex -8.66025 -15 24.1094
    endloop
  endfacet
  facet normal -0.6801 -0.392656 0.619101
    outer loop
      vertex -8.66025 -15 24.1094
      vertex 0 -6.3068 39.1364
      vertex 0 4.3295e-015 43.1364
    endloop
  endfacet
  facet normal -0.6801 -0.392656 0.619101
    outer loop
      vertex -8.66025 -15 24.1094
      vertex 0 4.3295e-015 43.1364
      vertex -5.46185 3.1534 39.1364
    endloop
  endfacet
  facet normal -0.6801 -0.392656 0.619101
    outer loop
      vertex -8.66025 -15 24.1094
      vertex -5.46185 3.1534 39.1364
      vertex -15.4999 3.1534 28.1094
    endloop
  endfacet
  facet normal -0.6801 -0.392656 0.619101
    outer loop
      vertex -8.66025 -15 24.1094
      vertex -15.4999 3.1534 28.1094
      vertex -17.3205 -1.43367e-015 24.1094
    endloop
  endfacet
  facet normal 6.12303e-017 1 2.22045e-016
    outer loop
      vertex 8.66025 15 24.1094
      vertex 8.66025 15 -24.1094
      vertex -8.66025 15 24.1094
    endloop
  endfacet
  facet normal 6.12303e-017 1 2.22045e-016
    outer loop
      vertex -8.66025 15 24.1094
      vertex 8.66025 15 -24.1094
      vertex 5.01902 15 -28.1094
    endloop
  endfacet
  facet normal 6.12303e-017 1 2.22045e-016
    outer loop
      vertex -8.66025 15 24.1094
      vertex 5.01902 15 -28.1094
      vertex -5.01902 15 -28.1094
    endloop
  endfacet
  facet normal 6.12303e-017 1 2.22045e-016
    outer loop
      vertex -8.66025 15 24.1094
      vertex -5.01902 15 -28.1094
      vertex -8.66025 15 -24.1094
    endloop
  endfacet
  facet normal 0 0.785312 0.619101
    outer loop
      vertex 0 4.3295e-015 43.1364
      vertex 5.46185 3.1534 39.1364
      vertex -5.46185 3.1534 39.1364
    endloop
  endfacet
  facet normal 0 0.785312 0.619101
    outer loop
      vertex -5.46185 3.1534 39.1364
      vertex 5.46185 3.1534 39.1364
      vertex 10.4809 11.8466 28.1094
    endloop
  endfacet
  facet normal 0 0.785312 0.619101
    outer loop
      vertex -5.46185 3.1534 39.1364
      vertex 10.4809 11.8466 28.1094
      vertex 8.66025 15 24.1094
    endloop
  endfacet
  facet normal 0 0.785312 0.619101
    outer loop
      vertex -5.46185 3.1534 39.1364
      vertex 8.66025 15 24.1094
      vertex -8.66025 15 24.1094
    endloop
  endfacet
  facet normal 0 0.785312 0.619101
    outer loop
      vertex -5.46185 3.1534 39.1364
      vertex -8.66025 15 24.1094
      vertex -10.4809 11.8466 28.1094
    endloop
  endfacet
  facet normal -0.6801 0.392656 0.619101
    outer loop
      vertex -5.46185 3.1534 39.1364
      vertex -10.4809 11.8466 28.1094
      vertex -15.4999 3.1534 28.1094
    endloop
  endfacet
  facet normal -0.6801 -0.392656 -0.619101
    outer loop
      vertex -5.46185 -3.1534 -39.1364
      vertex -10.4809 -11.8466 -28.1094
      vertex -15.4999 -3.1534 -28.1094
    endloop
  endfacet
  facet normal -1.22461e-016 -1 2.22045e-016
    outer loop
      vertex -8.66025 -15 -24.1094
      vertex 8.66025 -15 -24.1094
      vertex 8.66025 -15 24.1094
    endloop
  endfacet
  facet normal -1.22461e-016 -1 2.22045e-016
    outer loop
      vertex -5.01902 -15 28.1094
      vertex -8.66025 -15 -24.1094
      vertex 5.01902 -15 28.1094
    endloop
  endfacet
  facet normal -1.22461e-016 -1 2.22045e-016
    outer loop
      vertex 5.01902 -15 28.1094
      vertex -8.66025 -15 -24.1094
      vertex 8.66025 -15 24.1094
    endloop
  endfacet
  facet normal -1.22461e-016 -1 2.22045e-016
    outer loop
      vertex -8.66025 -15 24.1094
      vertex -8.66025 -15 -24.1094
      vertex -5.01902 -15 28.1094
    endloop
  endfacet
  facet normal 9.61698e-017 -0.785312 -0.619101
    outer loop
      vertex -5.46185 -3.1534 -39.1364
      vertex 0 -5.43918e-015 -43.1364
      vertex 5.46185 -3.1534 -39.1364
    endloop
  endfacet
  facet normal 9.61698e-017 -0.785312 -0.619101
    outer loop
      vertex 8.66025 -15 -24.1094
      vertex -5.46185 -3.1534 -39.1364
      vertex 10.4809 -11.8466 -28.1094
    endloop
  endfacet
  facet normal 9.61698e-017 -0.785312 -0.619101
    outer loop
      vertex 10.4809 -11.8466 -28.1094
      vertex -5.46185 -3.1534 -39.1364
      vertex 5.46185 -3.1534 -39.1364
    endloop
  endfacet
  facet normal 9.61698e-017 -0.785312 -0.619101
    outer loop
      vertex -8.66025 -15 -24.1094
      vertex -5.46185 -3.1534 -39.1364
      vertex 8.66025 -15 -24.1094
    endloop
  endfacet
  facet normal 9.61698e-017 -0.785312 -0.619101
    outer loop
      vertex -10.4809 -11.8466 -28.1094
      vertex -5.46185 -3.1534 -39.1364
      vertex -8.66025 -15 -24.1094
    endloop
  endfacet
  facet normal 0.6801 0.392656 -0.619101
    outer loop
      vertex 0 6.3068 -39.1364
      vertex 5.01902 15 -28.1094
      vertex 8.66025 15 -24.1094
    endloop
  endfacet
  facet normal 0.6801 0.392656 -0.619101
    outer loop
      vertex 15.4999 -3.1534 -28.1094
      vertex 0 6.3068 -39.1364
      vertex 17.3205 -2.41768e-016 -24.1094
    endloop
  endfacet
  facet normal 0.6801 0.392656 -0.619101
    outer loop
      vertex 17.3205 -2.41768e-016 -24.1094
      vertex 0 6.3068 -39.1364
      vertex 8.66025 15 -24.1094
    endloop
  endfacet
  facet normal 0.6801 0.392656 -0.619101
    outer loop
      vertex 5.46185 -3.1534 -39.1364
      vertex 0 6.3068 -39.1364
      vertex 15.4999 -3.1534 -28.1094
    endloop
  endfacet
  facet normal 0.6801 0.392656 -0.619101
    outer loop
      vertex 0 -5.43918e-015 -43.1364
      vertex 0 6.3068 -39.1364
      vertex 5.46185 -3.1534 -39.1364
    endloop
  endfacet
  facet normal -1.53467e-016 0.785312 -0.619101
    outer loop
      vertex 5.01902 15 -28.1094
      vertex 0 6.3068 -39.1364
      vertex -5.01902 15 -28.1094
    endloop
  endfacet
  facet normal 0.6801 -0.392656 0.619101
    outer loop
      vertex 5.01902 -15 28.1094
      vertex 8.66025 -15 24.1094
      vertex 17.3205 -2.55984e-015 24.1094
    endloop
  endfacet
  facet normal 0.6801 -0.392656 0.619101
    outer loop
      vertex 5.46185 3.1534 39.1364
      vertex 5.01902 -15 28.1094
      vertex 15.4999 3.1534 28.1094
    endloop
  endfacet
  facet normal 0.6801 -0.392656 0.619101
    outer loop
      vertex 15.4999 3.1534 28.1094
      vertex 5.01902 -15 28.1094
      vertex 17.3205 -2.55984e-015 24.1094
    endloop
  endfacet
  facet normal 0.6801 -0.392656 0.619101
    outer loop
      vertex 0 4.3295e-015 43.1364
      vertex 5.01902 -15 28.1094
      vertex 5.46185 3.1534 39.1364
    endloop
  endfacet
  facet normal 0.6801 -0.392656 0.619101
    outer loop
      vertex 0 -6.3068 39.1364
      vertex 5.01902 -15 28.1094
      vertex 0 4.3295e-015 43.1364
    endloop
  endfacet
  facet normal -2.70112e-016 -0.785312 0.619101
    outer loop
      vertex 5.01902 -15 28.1094
      vertex 0 -6.3068 39.1364
      vertex -5.01902 -15 28.1094
    endloop
  endfacet
  facet normal 0.866025 0.5 1.44222e-016
    outer loop
      vertex 10.4809 11.8466 28.1094
      vertex 15.4999 3.1534 28.1094
      vertex 17.3205 -2.55984e-015 24.1094
    endloop
  endfacet
  facet normal 0.866025 0.5 1.44222e-016
    outer loop
      vertex 8.66025 15 -24.1094
      vertex 10.4809 11.8466 28.1094
      vertex 17.3205 -2.41768e-016 -24.1094
    endloop
  endfacet
  facet normal 0.866025 0.5 1.44222e-016
    outer loop
      vertex 17.3205 -2.41768e-016 -24.1094
      vertex 10.4809 11.8466 28.1094
      vertex 17.3205 -2.55984e-015 24.1094
    endloop
  endfacet
  facet normal 0.866025 0.5 1.44222e-016
    outer loop
      vertex 8.66025 15 24.1094
      vertex 10.4809 11.8466 28.1094
      vertex 8.66025 15 -24.1094
    endloop
  endfacet
  facet normal 0.6801 0.392656 0.619101
    outer loop
      vertex 15.4999 3.1534 28.1094
      vertex 10.4809 11.8466 28.1094
      vertex 5.46185 3.1534 39.1364
    endloop
  endfacet
  facet normal 0.866025 -0.5 9.61481e-017
    outer loop
      vertex 10.4809 -11.8466 -28.1094
      vertex 15.4999 -3.1534 -28.1094
      vertex 17.3205 -2.41768e-016 -24.1094
    endloop
  endfacet
  facet normal 0.866025 -0.5 9.61481e-017
    outer loop
      vertex 8.66025 -15 24.1094
      vertex 10.4809 -11.8466 -28.1094
      vertex 17.3205 -2.55984e-015 24.1094
    endloop
  endfacet
  facet normal 0.866025 -0.5 9.61481e-017
    outer loop
      vertex 17.3205 -2.55984e-015 24.1094
      vertex 10.4809 -11.8466 -28.1094
      vertex 17.3205 -2.41768e-016 -24.1094
    endloop
  endfacet
  facet normal 0.866025 -0.5 9.61481e-017
    outer loop
      vertex 8.66025 -15 -24.1094
      vertex 10.4809 -11.8466 -28.1094
      vertex 8.66025 -15 24.1094
    endloop
  endfacet
  facet normal 0.6801 -0.392656 -0.619101
    outer loop
      vertex 15.4999 -3.1534 -28.1094
      vertex 10.4809 -11.8466 -28.1094
      vertex 5.46185 -3.1534 -39.1364
    endloop
  endfacet
endsolid OpenSCAD_Model
